{

	"devToTestPath" : {
		"customNamedValues" : [
			{
			    "cTags" : "BusinessAddressAndEmailValidation,TEST-BusinessAddressAndEmailValidation",
				"cTargetNvName" : "businessAddressandEmailValidation-url",
				"cTargetValue" : "apigw-sb.ptc.com/tst/ws/rest/validate/businessaddressandemailvalidation/v1/",
				"cTargetId" : "businessAddressandEmailValidation-url"
			},
			{
			    "cTags" : "BusinessAddressAndEmailValidation,TEST-BusinessAddressAndEmailValidation",
				"cTargetNvName" : "businessAddressandEmailValidation-x-api-key",
				"cTargetValue" : "9a95eb4f-47e4-4994-a85a-9ef588443af7",
				"cTargetId" : "businessAddressandEmailValidation-x-api-key"
			}
		]
	},
	
	"testToProdPath" : {
		"customNamedValues" : [
		{
			    "cTags" : "BusinessAddressAndEmailValidation,PROD-BusinessAddressAndEmailValidation",
				"cTargetNvName" : "businessAddressandEmailValidation-url",
				"cTargetValue" : "apigw.ptc.com/ws/rest/validate/businessaddressandemailvalidation/v1/",
				"cTargetId" : "businessAddressandEmailValidation-url"
			},
			{
			    "cTags" : "BusinessAddressAndEmailValidation,PROD-BusinessAddressAndEmailValidation",
				"cTargetNvName" : "businessAddressandEmailValidation-x-api-key",
				"cTargetValue" : "f49bb59b-38c7-4055-b44e-a15aedf4bbc1",
				"cTargetId" : "businessAddressandEmailValidation-x-api-key"
			}
		
		
		]
	}
}
