{

	"devToTestPath" : {
		"customNamedValues" : [
			{
				"cTags" : "dnb-v1,lookup",
				"cTargetNvName" : "dnblookup-url",
				"cTargetValue" : "apigw-sb.ptc.com/tst/ws/rest/dnb/v1/lookup/duns",
				"cTargetId" : "dnblookup-url"
			},
			{
			    "cTags" : "dnb-v1,lookup",
				"cTargetNvName" : "dnblookup-x-api-key",
				"cTargetValue" : "289283e6-3eca-4673-a23c-f09389d805fc",
				"cTargetId" : "dnblookup-x-api-key"
			},
			{
				"cTags" : "dnb-v1,batch",
				"cTargetNvName" : "dnbbatchurl",
				"cTargetValue" : "apigw-sb.ptc.com/tst/ws/rest/infa/advtaskflow/V1",
				"cTargetId" : "dnbbatchurl"
			},
			{
			    "cTags" : "dnb-v1,batch",
				"cTargetNvName" : "dnbbatch-x-api-key",
				"cTargetValue" : "cfb6ae78-6124-4a83-924d-f1a600921439",
				"cTargetId" : "dnbbatch-x-api-key"
			},
			{
				"cTags" : "dnb-v1,match",
				"cTargetNvName" : "dnbcheck-url",
				"cTargetValue" : "apigw-sb.ptc.com/tst/ws/rest/dnb/v1/lookup/match",
				"cTargetId" : "dnbcheck-url"
			},
			{
			    "cTags" : "dnb-v1,match",
				"cTargetNvName" : "dnbcheck-x-api-key",
				"cTargetValue" : "289283e6-3eca-4673-a23c-f09389d805fc",
				"cTargetId" : "dnbcheck-x-api-key"
			}					
			
		]
	},
	
	"testToProdPath" : {
		
		"customNamedValues" : [
			{
				"cTags" : "dnb-v1,lookup",
				"cTargetNvName" : "dnblookup-url",
				"cTargetValue" : "apigw.ptc.com/ws/rest/dnb/v1/lookup/duns",
				"cTargetId" : "dnblookup-url"
			},
			{
			    "cTags" : "dnb-v1,lookup",
				"cTargetNvName" : "dnblookup-x-api-key",
				"cTargetValue" : "992770dd-2bb6-43b6-bf2b-3213f580a86e",
				"cTargetId" : "dnblookup-x-api-key"
			},
			{
				"cTags" : "dnb-v1,batch",
				"cTargetNvName" : "dnbbatchurl",
				"cTargetValue" : "apigw.ptc.com/ws/rest/infa/advtaskflow/V1",
				"cTargetId" : "dnbbatchurl"
			},
			{
			    "cTags" : "dnb-v1,batch",
				"cTargetNvName" : "dnbbatch-x-api-key",
				"cTargetValue" : "679f6ad3-7781-4f5b-8590-575b62dc0395",
				"cTargetId" : "dnbbatch-x-api-key"
			},
			{
				"cTags" : "dnb-v1,match",
				"cTargetNvName" : "dnbcheck-url",
				"cTargetValue" : "apigw.ptc.com/ws/rest/dnb/v1/lookup/match",
				"cTargetId" : "dnbcheck-url"
			},
			{
			    "cTags" : "dnb-v1,match",
				"cTargetNvName" : "dnbcheck-x-api-key",
				"cTargetValue" : "992770dd-2bb6-43b6-bf2b-3213f580a86e",
				"cTargetId" : "dnbcheck-x-api-key"
			}					
			
		]
	
	}
}